{
	"data": [{
		"id": 1,
		"name": "beatae",
		"address": "182 Misael Greens Suite 459\nWest Kim, CT 57048"
	}, {
		"id": 2,
		"name": "voluptatem",
		"address": "558 Mekhi Extensions Suite 808\nNorth Ariannamouth, TX 21989"
	}, {
		"id": 3,
		"name": "molestiae",
		"address": "3673 Althea Canyon\nSouth Lennaview, NJ 96851-7250"
	}, {
		"id": 4,
		"name": "optio",
		"address": "410 Lorenzo Rest Apt. 114\nSouth Fredrickland, NY 53586-3697"
	}, {
		"id": 5,
		"name": "odio",
		"address": "5198 Hickle Mountains\nSouth Ethylshire, NY 99483-1979"
	}, {
		"id": 6,
		"name": "deserunt",
		"address": "565 Tom Islands Suite 181\nOlsonfort, WV 36270"
	}, {
		"id": 7,
		"name": "voluptatum",
		"address": "183 Gislason Loaf Apt. 572\nJocelynshire, MS 97344-0173"
	}, {
		"id": 8,
		"name": "quia",
		"address": "67819 Keon Canyon Apt. 119\nBrooksmouth, CO 13603-4660"
	}, {
		"id": 9,
		"name": "et",
		"address": "4781 Steuber Streets\nPort Erica, RI 33860"
	}, {
		"id": 10,
		"name": "assumenda",
		"address": "9531 Weimann Terrace\nPort Jackhaven, ME 36557-5983"
	}],
	"links": {
		"first": "http:\/\/128.199.215.102:4040\/api\/stores?page=1",
		"last": "http:\/\/128.199.215.102:4040\/api\/stores?page=55",
		"prev": null,
		"next": "http:\/\/128.199.215.102:4040\/api\/stores?page=2"
	},
	"meta": {
		"current_page": 1,
		"from": 1,
		"last_page": 55,
		"path": "http:\/\/128.199.215.102:4040\/api\/stores",
		"per_page": 10,
		"to": 10,
		"total": 550
	}
}